%!PS-Adobe-3.0
%%Creator: graphviz version 2.26.3 (20100126.1600)
%%Title: cartography
%%Pages: (atend)
%%BoundingBox: (atend)
%%EndComments
save
%%BeginProlog
/DotDict 200 dict def
DotDict begin

/setupLatin1 {
mark
/EncodingVector 256 array def
 EncodingVector 0

ISOLatin1Encoding 0 255 getinterval putinterval
EncodingVector 45 /hyphen put

% Set up ISO Latin 1 character encoding
/starnetISO {
        dup dup findfont dup length dict begin
        { 1 index /FID ne { def }{ pop pop } ifelse
        } forall
        /Encoding EncodingVector def
        currentdict end definefont
} def
/Times-Roman starnetISO def
/Times-Italic starnetISO def
/Times-Bold starnetISO def
/Times-BoldItalic starnetISO def
/Helvetica starnetISO def
/Helvetica-Oblique starnetISO def
/Helvetica-Bold starnetISO def
/Helvetica-BoldOblique starnetISO def
/Courier starnetISO def
/Courier-Oblique starnetISO def
/Courier-Bold starnetISO def
/Courier-BoldOblique starnetISO def
cleartomark
} bind def

%%BeginResource: procset graphviz 0 0
/coord-font-family /Times-Roman def
/default-font-family /Times-Roman def
/coordfont coord-font-family findfont 8 scalefont def

/InvScaleFactor 1.0 def
/set_scale {
       dup 1 exch div /InvScaleFactor exch def
       scale
} bind def

% styles
/solid { [] 0 setdash } bind def
/dashed { [9 InvScaleFactor mul dup ] 0 setdash } bind def
/dotted { [1 InvScaleFactor mul 6 InvScaleFactor mul] 0 setdash } bind def
/invis {/fill {newpath} def /stroke {newpath} def /show {pop newpath} def} bind def
/bold { 2 setlinewidth } bind def
/filled { } bind def
/unfilled { } bind def
/rounded { } bind def
/diagonals { } bind def

% hooks for setting color 
/nodecolor { sethsbcolor } bind def
/edgecolor { sethsbcolor } bind def
/graphcolor { sethsbcolor } bind def
/nopcolor {pop pop pop} bind def

/beginpage {	% i j npages
	/npages exch def
	/j exch def
	/i exch def
	/str 10 string def
	npages 1 gt {
		gsave
			coordfont setfont
			0 0 moveto
			(\() show i str cvs show (,) show j str cvs show (\)) show
		grestore
	} if
} bind def

/set_font {
	findfont exch
	scalefont setfont
} def

% draw text fitted to its expected width
/alignedtext {			% width text
	/text exch def
	/width exch def
	gsave
		width 0 gt {
			[] 0 setdash
			text stringwidth pop width exch sub text length div 0 text ashow
		} if
	grestore
} def

/boxprim {				% xcorner ycorner xsize ysize
		4 2 roll
		moveto
		2 copy
		exch 0 rlineto
		0 exch rlineto
		pop neg 0 rlineto
		closepath
} bind def

/ellipse_path {
	/ry exch def
	/rx exch def
	/y exch def
	/x exch def
	matrix currentmatrix
	newpath
	x y translate
	rx ry scale
	0 0 1 0 360 arc
	setmatrix
} bind def

/endpage { showpage } bind def
/showpage { } def

/layercolorseq
	[	% layer color sequence - darkest to lightest
		[0 0 0]
		[.2 .8 .8]
		[.4 .8 .8]
		[.6 .8 .8]
		[.8 .8 .8]
	]
def

/layerlen layercolorseq length def

/setlayer {/maxlayer exch def /curlayer exch def
	layercolorseq curlayer 1 sub layerlen mod get
	aload pop sethsbcolor
	/nodecolor {nopcolor} def
	/edgecolor {nopcolor} def
	/graphcolor {nopcolor} def
} bind def

/onlayer { curlayer ne {invis} if } def

/onlayers {
	/myupper exch def
	/mylower exch def
	curlayer mylower lt
	curlayer myupper gt
	or
	{invis} if
} def

/curlayer 0 def

%%EndResource
%%EndProlog
%%BeginSetup
14 default-font-family set_font
1 setmiterlimit
% /arrowlength 10 def
% /arrowwidth 5 def

% make sure pdfmark is harmless for PS-interpreters other than Distiller
/pdfmark where {pop} {userdict /pdfmark /cleartomark load put} ifelse
% make '<<' and '>>' safe on PS Level 1 devices
/languagelevel where {pop languagelevel}{1} ifelse
2 lt {
    userdict (<<) cvn ([) cvn load put
    userdict (>>) cvn ([) cvn load put
} if

%%EndSetup
setupLatin1
%%Page: 1 1
%%PageBoundingBox: 36 36 264 374
%%PageOrientation: Portrait
0 0 1 beginpage
gsave
36 36 228 338 boxprim clip newpath
1 1 set_scale 0 rotate 40 41 translate
% init
gsave
0 0 0.82745 nodecolor
newpath 12 293 moveto
42 293 lineto
54 305 lineto
54 317 lineto
42 329 lineto
12 329 lineto
0 317 lineto
0 305 lineto
closepath fill
1 setlinewidth
filled
0 0 0.82745 nodecolor
newpath 12 293 moveto
42 293 lineto
54 305 lineto
54 317 lineto
42 329 lineto
12 329 lineto
0 317 lineto
0 305 lineto
closepath stroke
0 0 0.82745 nodecolor
newpath 42 293 moveto
48 293 54 299 54 305 curveto
closepath fill
1 setlinewidth
filled
0 0 0.82745 nodecolor
newpath 42 293 moveto
48 293 54 299 54 305 curveto
stroke
0 0 0.82745 nodecolor
newpath 54 317 moveto
54 323 48 329 42 329 curveto
closepath fill
1 setlinewidth
filled
0 0 0.82745 nodecolor
newpath 54 317 moveto
54 323 48 329 42 329 curveto
stroke
0 0 0.82745 nodecolor
newpath 12 329 moveto
6 329 0 323 0 317 curveto
closepath fill
1 setlinewidth
filled
0 0 0.82745 nodecolor
newpath 12 329 moveto
6 329 0 323 0 317 curveto
stroke
0 0 0.82745 nodecolor
newpath 0 305 moveto
0 299 6 293 12 293 curveto
closepath fill
1 setlinewidth
filled
0 0 0.82745 nodecolor
newpath 0 305 moveto
0 299 6 293 12 293 curveto
stroke
1 setlinewidth
filled
0 0 0 nodecolor
newpath 12 293 moveto
42 293 lineto
stroke
1 setlinewidth
filled
0 0 0 nodecolor
newpath 42 293 moveto
48 293 54 299 54 305 curveto
stroke
1 setlinewidth
filled
0 0 0 nodecolor
newpath 54 305 moveto
54 317 lineto
stroke
1 setlinewidth
filled
0 0 0 nodecolor
newpath 54 317 moveto
54 323 48 329 42 329 curveto
stroke
1 setlinewidth
filled
0 0 0 nodecolor
newpath 42 329 moveto
12 329 lineto
stroke
1 setlinewidth
filled
0 0 0 nodecolor
newpath 12 329 moveto
6 329 0 323 0 317 curveto
stroke
1 setlinewidth
filled
0 0 0 nodecolor
newpath 0 317 moveto
0 305 lineto
stroke
1 setlinewidth
filled
0 0 0 nodecolor
newpath 0 305 moveto
0 299 6 293 12 293 curveto
stroke
0 0 0 nodecolor
14 /Times-Roman set_font
15.5 307.4 moveto 23 (init) alignedtext
grestore
% A
gsave
0.44314 0.50196 1 nodecolor
newpath 12 201 moveto
42 201 lineto
54 213 lineto
54 241 lineto
42 253 lineto
12 253 lineto
0 241 lineto
0 213 lineto
closepath fill
1 setlinewidth
filled
0.44314 0.50196 1 nodecolor
newpath 12 201 moveto
42 201 lineto
54 213 lineto
54 241 lineto
42 253 lineto
12 253 lineto
0 241 lineto
0 213 lineto
closepath stroke
0.44314 0.50196 1 nodecolor
newpath 42 201 moveto
48 201 54 207 54 213 curveto
closepath fill
1 setlinewidth
filled
0.44314 0.50196 1 nodecolor
newpath 42 201 moveto
48 201 54 207 54 213 curveto
stroke
0.44314 0.50196 1 nodecolor
newpath 54 241 moveto
54 247 48 253 42 253 curveto
closepath fill
1 setlinewidth
filled
0.44314 0.50196 1 nodecolor
newpath 54 241 moveto
54 247 48 253 42 253 curveto
stroke
0.44314 0.50196 1 nodecolor
newpath 12 253 moveto
6 253 0 247 0 241 curveto
closepath fill
1 setlinewidth
filled
0.44314 0.50196 1 nodecolor
newpath 12 253 moveto
6 253 0 247 0 241 curveto
stroke
0.44314 0.50196 1 nodecolor
newpath 0 213 moveto
0 207 6 201 12 201 curveto
closepath fill
1 setlinewidth
filled
0.44314 0.50196 1 nodecolor
newpath 0 213 moveto
0 207 6 201 12 201 curveto
stroke
1 setlinewidth
filled
0 0 0 nodecolor
newpath 12 201 moveto
42 201 lineto
stroke
1 setlinewidth
filled
0 0 0 nodecolor
newpath 42 201 moveto
48 201 54 207 54 213 curveto
stroke
1 setlinewidth
filled
0 0 0 nodecolor
newpath 54 213 moveto
54 241 lineto
stroke
1 setlinewidth
filled
0 0 0 nodecolor
newpath 54 241 moveto
54 247 48 253 42 253 curveto
stroke
1 setlinewidth
filled
0 0 0 nodecolor
newpath 42 253 moveto
12 253 lineto
stroke
1 setlinewidth
filled
0 0 0 nodecolor
newpath 12 253 moveto
6 253 0 247 0 241 curveto
stroke
1 setlinewidth
filled
0 0 0 nodecolor
newpath 0 241 moveto
0 213 lineto
stroke
1 setlinewidth
filled
0 0 0 nodecolor
newpath 0 213 moveto
0 207 6 201 12 201 curveto
stroke
0 0 0 nodecolor
14 /Times-Roman set_font
22.5 236.4 moveto 9 (F) alignedtext
1 setlinewidth
filled
0 0 0 nodecolor
newpath 0 227 moveto
54 227 lineto
stroke
0 0 0 nodecolor
14 /Times-Roman set_font
22.5 210.4 moveto 9 (F) alignedtext
grestore
% init->A
gsave
1 setlinewidth
dotted
0 0 0 edgecolor
newpath 27 292.77 moveto
27 284.18 27 273.6 27 263.47 curveto
stroke
0 0 0 edgecolor
newpath 30.5 263.16 moveto
27 253.16 lineto
23.5 263.16 lineto
closepath fill
1 setlinewidth
solid
0 0 0 edgecolor
newpath 30.5 263.16 moveto
27 253.16 lineto
23.5 263.16 lineto
closepath stroke
grestore
% A->A
gsave
1 setlinewidth
dashed
0 0 0 edgecolor
newpath 54.24 235.62 moveto
64.02 235.8 72 232.93 72 227 curveto
72 223.39 69.04 220.91 64.51 219.57 curveto
stroke
0 0 0 edgecolor
newpath 64.58 216.05 moveto
54.24 218.38 lineto
63.77 223 lineto
closepath fill
1 setlinewidth
solid
0 0 0 edgecolor
newpath 64.58 216.05 moveto
54.24 218.38 lineto
63.77 223 lineto
closepath stroke
grestore
% E
gsave
0.44314 0.50196 1 nodecolor
newpath 12 93 moveto
42 93 lineto
54 105 lineto
54 133 lineto
42 145 lineto
12 145 lineto
0 133 lineto
0 105 lineto
closepath fill
1 setlinewidth
filled
0.44314 0.50196 1 nodecolor
newpath 12 93 moveto
42 93 lineto
54 105 lineto
54 133 lineto
42 145 lineto
12 145 lineto
0 133 lineto
0 105 lineto
closepath stroke
0.44314 0.50196 1 nodecolor
newpath 42 93 moveto
48 93 54 99 54 105 curveto
closepath fill
1 setlinewidth
filled
0.44314 0.50196 1 nodecolor
newpath 42 93 moveto
48 93 54 99 54 105 curveto
stroke
0.44314 0.50196 1 nodecolor
newpath 54 133 moveto
54 139 48 145 42 145 curveto
closepath fill
1 setlinewidth
filled
0.44314 0.50196 1 nodecolor
newpath 54 133 moveto
54 139 48 145 42 145 curveto
stroke
0.44314 0.50196 1 nodecolor
newpath 12 145 moveto
6 145 0 139 0 133 curveto
closepath fill
1 setlinewidth
filled
0.44314 0.50196 1 nodecolor
newpath 12 145 moveto
6 145 0 139 0 133 curveto
stroke
0.44314 0.50196 1 nodecolor
newpath 0 105 moveto
0 99 6 93 12 93 curveto
closepath fill
1 setlinewidth
filled
0.44314 0.50196 1 nodecolor
newpath 0 105 moveto
0 99 6 93 12 93 curveto
stroke
1 setlinewidth
filled
0 0 0 nodecolor
newpath 12 93 moveto
42 93 lineto
stroke
1 setlinewidth
filled
0 0 0 nodecolor
newpath 42 93 moveto
48 93 54 99 54 105 curveto
stroke
1 setlinewidth
filled
0 0 0 nodecolor
newpath 54 105 moveto
54 133 lineto
stroke
1 setlinewidth
filled
0 0 0 nodecolor
newpath 54 133 moveto
54 139 48 145 42 145 curveto
stroke
1 setlinewidth
filled
0 0 0 nodecolor
newpath 42 145 moveto
12 145 lineto
stroke
1 setlinewidth
filled
0 0 0 nodecolor
newpath 12 145 moveto
6 145 0 139 0 133 curveto
stroke
1 setlinewidth
filled
0 0 0 nodecolor
newpath 0 133 moveto
0 105 lineto
stroke
1 setlinewidth
filled
0 0 0 nodecolor
newpath 0 105 moveto
0 99 6 93 12 93 curveto
stroke
0 0 0 nodecolor
14 /Times-Roman set_font
22.5 128.4 moveto 9 (F) alignedtext
1 setlinewidth
filled
0 0 0 nodecolor
newpath 0 119 moveto
54 119 lineto
stroke
0 0 0 nodecolor
14 /Times-Roman set_font
21 102.4 moveto 12 (O) alignedtext
grestore
% A->E
gsave
1 setlinewidth
0 0 0 edgecolor
newpath 21.12 200.86 moveto
20.19 187.29 20 170.5 20.57 155.66 curveto
stroke
0 0 0 edgecolor
newpath 24.09 155.45 moveto
21.11 145.28 lineto
17.09 155.08 lineto
closepath fill
1 setlinewidth
solid
0 0 0 edgecolor
newpath 24.09 155.45 moveto
21.11 145.28 lineto
17.09 155.08 lineto
closepath stroke
grestore
% E->A
gsave
1 setlinewidth
dashed
0 0 0 edgecolor
newpath 32.89 145.28 moveto
33.82 158.86 33.99 175.66 33.43 190.48 curveto
stroke
0 0 0 edgecolor
newpath 29.91 190.69 moveto
32.88 200.86 lineto
36.9 191.05 lineto
closepath fill
1 setlinewidth
solid
0 0 0 edgecolor
newpath 29.91 190.69 moveto
32.88 200.86 lineto
36.9 191.05 lineto
closepath stroke
grestore
% E->E
gsave
1 setlinewidth
0 0 0 edgecolor
newpath 54.24 123.31 moveto
64.02 123.4 72 121.96 72 119 curveto
72 117.19 69.04 115.95 64.51 115.28 curveto
stroke
0 0 0 edgecolor
newpath 64.43 111.77 moveto
54.24 114.69 lineto
64.02 118.76 lineto
closepath fill
1 setlinewidth
solid
0 0 0 edgecolor
newpath 64.43 111.77 moveto
54.24 114.69 lineto
64.02 118.76 lineto
closepath stroke
grestore
% E->E
gsave
1 setlinewidth
dashed
0 0 0 edgecolor
newpath 54.2 126.86 moveto
72.34 129.08 90 126.46 90 119 curveto
90 112.94 78.34 110.07 64.24 110.4 curveto
stroke
0 0 0 edgecolor
newpath 63.92 106.91 moveto
54.2 111.14 lineto
64.43 113.9 lineto
closepath fill
1 setlinewidth
solid
0 0 0 edgecolor
newpath 63.92 106.91 moveto
54.2 111.14 lineto
64.43 113.9 lineto
closepath stroke
grestore
% F
gsave
0.44314 0.50196 1 nodecolor
newpath 12 1 moveto
42 1 lineto
54 13 lineto
54 41 lineto
42 53 lineto
12 53 lineto
0 41 lineto
0 13 lineto
closepath fill
1 setlinewidth
filled
0.44314 0.50196 1 nodecolor
newpath 12 1 moveto
42 1 lineto
54 13 lineto
54 41 lineto
42 53 lineto
12 53 lineto
0 41 lineto
0 13 lineto
closepath stroke
0.44314 0.50196 1 nodecolor
newpath 42 1 moveto
48 1 54 7 54 13 curveto
closepath fill
1 setlinewidth
filled
0.44314 0.50196 1 nodecolor
newpath 42 1 moveto
48 1 54 7 54 13 curveto
stroke
0.44314 0.50196 1 nodecolor
newpath 54 41 moveto
54 47 48 53 42 53 curveto
closepath fill
1 setlinewidth
filled
0.44314 0.50196 1 nodecolor
newpath 54 41 moveto
54 47 48 53 42 53 curveto
stroke
0.44314 0.50196 1 nodecolor
newpath 12 53 moveto
6 53 0 47 0 41 curveto
closepath fill
1 setlinewidth
filled
0.44314 0.50196 1 nodecolor
newpath 12 53 moveto
6 53 0 47 0 41 curveto
stroke
0.44314 0.50196 1 nodecolor
newpath 0 13 moveto
0 7 6 1 12 1 curveto
closepath fill
1 setlinewidth
filled
0.44314 0.50196 1 nodecolor
newpath 0 13 moveto
0 7 6 1 12 1 curveto
stroke
1 setlinewidth
filled
0 0 0 nodecolor
newpath 12 1 moveto
42 1 lineto
stroke
1 setlinewidth
filled
0 0 0 nodecolor
newpath 42 1 moveto
48 1 54 7 54 13 curveto
stroke
1 setlinewidth
filled
0 0 0 nodecolor
newpath 54 13 moveto
54 41 lineto
stroke
1 setlinewidth
filled
0 0 0 nodecolor
newpath 54 41 moveto
54 47 48 53 42 53 curveto
stroke
1 setlinewidth
filled
0 0 0 nodecolor
newpath 42 53 moveto
12 53 lineto
stroke
1 setlinewidth
filled
0 0 0 nodecolor
newpath 12 53 moveto
6 53 0 47 0 41 curveto
stroke
1 setlinewidth
filled
0 0 0 nodecolor
newpath 0 41 moveto
0 13 lineto
stroke
1 setlinewidth
filled
0 0 0 nodecolor
newpath 0 13 moveto
0 7 6 1 12 1 curveto
stroke
0 0 0 nodecolor
14 /Times-Roman set_font
21 36.4 moveto 12 (O) alignedtext
1 setlinewidth
filled
0 0 0 nodecolor
newpath 0 27 moveto
54 27 lineto
stroke
0 0 0 nodecolor
14 /Times-Roman set_font
21 10.4 moveto 12 (O) alignedtext
grestore
% E->F
gsave
1 setlinewidth
0 0 0 edgecolor
newpath 20.84 92.88 moveto
20.26 83.66 20.1 73.11 20.39 63.2 curveto
stroke
0 0 0 edgecolor
newpath 23.89 63.33 moveto
20.84 53.18 lineto
16.89 63.01 lineto
closepath fill
1 setlinewidth
solid
0 0 0 edgecolor
newpath 23.89 63.33 moveto
20.84 53.18 lineto
16.89 63.01 lineto
closepath stroke
grestore
% F->E
gsave
1 setlinewidth
dashed
0 0 0 edgecolor
newpath 33.16 53.18 moveto
33.74 62.42 33.9 72.96 33.61 82.87 curveto
stroke
0 0 0 edgecolor
newpath 30.11 82.73 moveto
33.16 92.88 lineto
37.11 83.05 lineto
closepath fill
1 setlinewidth
solid
0 0 0 edgecolor
newpath 30.11 82.73 moveto
33.16 92.88 lineto
37.11 83.05 lineto
closepath stroke
grestore
% F->F
gsave
1 setlinewidth
0 0 0 edgecolor
newpath 54.24 35.62 moveto
64.02 35.8 72 32.93 72 27 curveto
72 23.39 69.04 20.91 64.51 19.57 curveto
stroke
0 0 0 edgecolor
newpath 64.58 16.05 moveto
54.24 18.38 lineto
63.77 23 lineto
closepath fill
1 setlinewidth
solid
0 0 0 edgecolor
newpath 64.58 16.05 moveto
54.24 18.38 lineto
63.77 23 lineto
closepath stroke
grestore
% new
gsave
0 0 0.82745 nodecolor
newpath 113 293 moveto
143 293 lineto
155 305 lineto
155 317 lineto
143 329 lineto
113 329 lineto
101 317 lineto
101 305 lineto
closepath fill
1 setlinewidth
filled
0 0 0.82745 nodecolor
newpath 113 293 moveto
143 293 lineto
155 305 lineto
155 317 lineto
143 329 lineto
113 329 lineto
101 317 lineto
101 305 lineto
closepath stroke
0 0 0.82745 nodecolor
newpath 143 293 moveto
149 293 155 299 155 305 curveto
closepath fill
1 setlinewidth
filled
0 0 0.82745 nodecolor
newpath 143 293 moveto
149 293 155 299 155 305 curveto
stroke
0 0 0.82745 nodecolor
newpath 155 317 moveto
155 323 149 329 143 329 curveto
closepath fill
1 setlinewidth
filled
0 0 0.82745 nodecolor
newpath 155 317 moveto
155 323 149 329 143 329 curveto
stroke
0 0 0.82745 nodecolor
newpath 113 329 moveto
107 329 101 323 101 317 curveto
closepath fill
1 setlinewidth
filled
0 0 0.82745 nodecolor
newpath 113 329 moveto
107 329 101 323 101 317 curveto
stroke
0 0 0.82745 nodecolor
newpath 101 305 moveto
101 299 107 293 113 293 curveto
closepath fill
1 setlinewidth
filled
0 0 0.82745 nodecolor
newpath 101 305 moveto
101 299 107 293 113 293 curveto
stroke
1 setlinewidth
filled
0 0 0 nodecolor
newpath 113 293 moveto
143 293 lineto
stroke
1 setlinewidth
filled
0 0 0 nodecolor
newpath 143 293 moveto
149 293 155 299 155 305 curveto
stroke
1 setlinewidth
filled
0 0 0 nodecolor
newpath 155 305 moveto
155 317 lineto
stroke
1 setlinewidth
filled
0 0 0 nodecolor
newpath 155 317 moveto
155 323 149 329 143 329 curveto
stroke
1 setlinewidth
filled
0 0 0 nodecolor
newpath 143 329 moveto
113 329 lineto
stroke
1 setlinewidth
filled
0 0 0 nodecolor
newpath 113 329 moveto
107 329 101 323 101 317 curveto
stroke
1 setlinewidth
filled
0 0 0 nodecolor
newpath 101 317 moveto
101 305 lineto
stroke
1 setlinewidth
filled
0 0 0 nodecolor
newpath 101 305 moveto
101 299 107 293 113 293 curveto
stroke
0 0 0 nodecolor
14 /Times-Roman set_font
112.5 307.4 moveto 31 (new) alignedtext
grestore
% D
gsave
0.066667 0.8549 0.82353 nodecolor
newpath 113 201 moveto
143 201 lineto
155 213 lineto
155 241 lineto
143 253 lineto
113 253 lineto
101 241 lineto
101 213 lineto
closepath fill
1 setlinewidth
filled
0.066667 0.8549 0.82353 nodecolor
newpath 113 201 moveto
143 201 lineto
155 213 lineto
155 241 lineto
143 253 lineto
113 253 lineto
101 241 lineto
101 213 lineto
closepath stroke
0.066667 0.8549 0.82353 nodecolor
newpath 143 201 moveto
149 201 155 207 155 213 curveto
closepath fill
1 setlinewidth
filled
0.066667 0.8549 0.82353 nodecolor
newpath 143 201 moveto
149 201 155 207 155 213 curveto
stroke
0.066667 0.8549 0.82353 nodecolor
newpath 155 241 moveto
155 247 149 253 143 253 curveto
closepath fill
1 setlinewidth
filled
0.066667 0.8549 0.82353 nodecolor
newpath 155 241 moveto
155 247 149 253 143 253 curveto
stroke
0.066667 0.8549 0.82353 nodecolor
newpath 113 253 moveto
107 253 101 247 101 241 curveto
closepath fill
1 setlinewidth
filled
0.066667 0.8549 0.82353 nodecolor
newpath 113 253 moveto
107 253 101 247 101 241 curveto
stroke
0.066667 0.8549 0.82353 nodecolor
newpath 101 213 moveto
101 207 107 201 113 201 curveto
closepath fill
1 setlinewidth
filled
0.066667 0.8549 0.82353 nodecolor
newpath 101 213 moveto
101 207 107 201 113 201 curveto
stroke
1 setlinewidth
filled
0 0 0 nodecolor
newpath 113 201 moveto
143 201 lineto
stroke
1 setlinewidth
filled
0 0 0 nodecolor
newpath 143 201 moveto
149 201 155 207 155 213 curveto
stroke
1 setlinewidth
filled
0 0 0 nodecolor
newpath 155 213 moveto
155 241 lineto
stroke
1 setlinewidth
filled
0 0 0 nodecolor
newpath 155 241 moveto
155 247 149 253 143 253 curveto
stroke
1 setlinewidth
filled
0 0 0 nodecolor
newpath 143 253 moveto
113 253 lineto
stroke
1 setlinewidth
filled
0 0 0 nodecolor
newpath 113 253 moveto
107 253 101 247 101 241 curveto
stroke
1 setlinewidth
filled
0 0 0 nodecolor
newpath 101 241 moveto
101 213 lineto
stroke
1 setlinewidth
filled
0 0 0 nodecolor
newpath 101 213 moveto
101 207 107 201 113 201 curveto
stroke
0 0 0 nodecolor
14 /Times-Roman set_font
123.5 236.4 moveto 9 (F) alignedtext
1 setlinewidth
filled
0 0 0 nodecolor
newpath 101 227 moveto
155 227 lineto
stroke
0 0 0 nodecolor
14 /Times-Roman set_font
123.5 210.4 moveto 9 (F) alignedtext
grestore
% new->D
gsave
1 setlinewidth
dotted
0 0 0 edgecolor
newpath 128 292.77 moveto
128 284.18 128 273.6 128 263.47 curveto
stroke
0 0 0 edgecolor
newpath 131.5 263.16 moveto
128 253.16 lineto
124.5 263.16 lineto
closepath fill
1 setlinewidth
solid
0 0 0 edgecolor
newpath 131.5 263.16 moveto
128 253.16 lineto
124.5 263.16 lineto
closepath stroke
grestore
% D->D
gsave
1 setlinewidth
dashed
0 0 0 edgecolor
newpath 155.24 235.62 moveto
165.02 235.8 173 232.93 173 227 curveto
173 223.39 170.04 220.91 165.51 219.57 curveto
stroke
0 0 0 edgecolor
newpath 165.58 216.05 moveto
155.24 218.38 lineto
164.77 223 lineto
closepath fill
1 setlinewidth
solid
0 0 0 edgecolor
newpath 165.58 216.05 moveto
155.24 218.38 lineto
164.77 223 lineto
closepath stroke
grestore
% C
gsave
0.066667 0.8549 0.82353 nodecolor
newpath 128 93 moveto
158 93 lineto
170 105 lineto
170 133 lineto
158 145 lineto
128 145 lineto
116 133 lineto
116 105 lineto
closepath fill
1 setlinewidth
filled
0.066667 0.8549 0.82353 nodecolor
newpath 128 93 moveto
158 93 lineto
170 105 lineto
170 133 lineto
158 145 lineto
128 145 lineto
116 133 lineto
116 105 lineto
closepath stroke
0.066667 0.8549 0.82353 nodecolor
newpath 158 93 moveto
164 93 170 99 170 105 curveto
closepath fill
1 setlinewidth
filled
0.066667 0.8549 0.82353 nodecolor
newpath 158 93 moveto
164 93 170 99 170 105 curveto
stroke
0.066667 0.8549 0.82353 nodecolor
newpath 170 133 moveto
170 139 164 145 158 145 curveto
closepath fill
1 setlinewidth
filled
0.066667 0.8549 0.82353 nodecolor
newpath 170 133 moveto
170 139 164 145 158 145 curveto
stroke
0.066667 0.8549 0.82353 nodecolor
newpath 128 145 moveto
122 145 116 139 116 133 curveto
closepath fill
1 setlinewidth
filled
0.066667 0.8549 0.82353 nodecolor
newpath 128 145 moveto
122 145 116 139 116 133 curveto
stroke
0.066667 0.8549 0.82353 nodecolor
newpath 116 105 moveto
116 99 122 93 128 93 curveto
closepath fill
1 setlinewidth
filled
0.066667 0.8549 0.82353 nodecolor
newpath 116 105 moveto
116 99 122 93 128 93 curveto
stroke
1 setlinewidth
filled
0 0 0 nodecolor
newpath 128 93 moveto
158 93 lineto
stroke
1 setlinewidth
filled
0 0 0 nodecolor
newpath 158 93 moveto
164 93 170 99 170 105 curveto
stroke
1 setlinewidth
filled
0 0 0 nodecolor
newpath 170 105 moveto
170 133 lineto
stroke
1 setlinewidth
filled
0 0 0 nodecolor
newpath 170 133 moveto
170 139 164 145 158 145 curveto
stroke
1 setlinewidth
filled
0 0 0 nodecolor
newpath 158 145 moveto
128 145 lineto
stroke
1 setlinewidth
filled
0 0 0 nodecolor
newpath 128 145 moveto
122 145 116 139 116 133 curveto
stroke
1 setlinewidth
filled
0 0 0 nodecolor
newpath 116 133 moveto
116 105 lineto
stroke
1 setlinewidth
filled
0 0 0 nodecolor
newpath 116 105 moveto
116 99 122 93 128 93 curveto
stroke
0 0 0 nodecolor
14 /Times-Roman set_font
138.5 128.4 moveto 9 (F) alignedtext
1 setlinewidth
filled
0 0 0 nodecolor
newpath 116 119 moveto
170 119 lineto
stroke
0 0 0 nodecolor
14 /Times-Roman set_font
137 102.4 moveto 12 (O) alignedtext
grestore
% D->C
gsave
1 setlinewidth
0 0 0 edgecolor
newpath 120.45 200.71 moveto
118.26 189.32 117.14 175.9 120 164 curveto
120.76 160.84 121.78 157.66 122.97 154.52 curveto
stroke
0 0 0 edgecolor
newpath 126.19 155.89 moveto
126.96 145.32 lineto
119.77 153.11 lineto
closepath fill
1 setlinewidth
solid
0 0 0 edgecolor
newpath 126.19 155.89 moveto
126.96 145.32 lineto
119.77 153.11 lineto
closepath stroke
0 0 0 edgecolor
14 /Times-Roman set_font
120 169.4 moveto 14 (-F) alignedtext
grestore
% C->D
gsave
1 setlinewidth
dashed
0 0 0 edgecolor
newpath 139.35 145.28 moveto
137.45 158.99 135.09 175.98 133.01 190.91 curveto
stroke
0 0 0 edgecolor
newpath 129.54 190.47 moveto
131.63 200.86 lineto
136.47 191.43 lineto
closepath fill
1 setlinewidth
solid
0 0 0 edgecolor
newpath 129.54 190.47 moveto
131.63 200.86 lineto
136.47 191.43 lineto
closepath stroke
grestore
% C->C
gsave
1 setlinewidth
0 0 0 edgecolor
newpath 170.24 123.31 moveto
180.02 123.4 188 121.96 188 119 curveto
188 117.19 185.04 115.95 180.51 115.28 curveto
stroke
0 0 0 edgecolor
newpath 180.43 111.77 moveto
170.24 114.69 lineto
180.02 118.76 lineto
closepath fill
1 setlinewidth
solid
0 0 0 edgecolor
newpath 180.43 111.77 moveto
170.24 114.69 lineto
180.02 118.76 lineto
closepath stroke
0 0 0 edgecolor
14 /Times-Roman set_font
188 115.4 moveto 14 (-F) alignedtext
grestore
% C->C
gsave
1 setlinewidth
dashed
0 0 0 edgecolor
newpath 170.2 135.24 moveto
188.34 139.81 206 134.4 206 119 curveto
206 106.49 194.34 100.57 180.24 101.24 curveto
stroke
0 0 0 edgecolor
newpath 179.56 97.8 moveto
170.2 102.76 lineto
180.61 104.72 lineto
closepath fill
1 setlinewidth
solid
0 0 0 edgecolor
newpath 179.56 97.8 moveto
170.2 102.76 lineto
180.61 104.72 lineto
closepath stroke
grestore
% B
gsave
0.066667 0.8549 0.82353 nodecolor
newpath 128 1 moveto
158 1 lineto
170 13 lineto
170 41 lineto
158 53 lineto
128 53 lineto
116 41 lineto
116 13 lineto
closepath fill
1 setlinewidth
filled
0.066667 0.8549 0.82353 nodecolor
newpath 128 1 moveto
158 1 lineto
170 13 lineto
170 41 lineto
158 53 lineto
128 53 lineto
116 41 lineto
116 13 lineto
closepath stroke
0.066667 0.8549 0.82353 nodecolor
newpath 158 1 moveto
164 1 170 7 170 13 curveto
closepath fill
1 setlinewidth
filled
0.066667 0.8549 0.82353 nodecolor
newpath 158 1 moveto
164 1 170 7 170 13 curveto
stroke
0.066667 0.8549 0.82353 nodecolor
newpath 170 41 moveto
170 47 164 53 158 53 curveto
closepath fill
1 setlinewidth
filled
0.066667 0.8549 0.82353 nodecolor
newpath 170 41 moveto
170 47 164 53 158 53 curveto
stroke
0.066667 0.8549 0.82353 nodecolor
newpath 128 53 moveto
122 53 116 47 116 41 curveto
closepath fill
1 setlinewidth
filled
0.066667 0.8549 0.82353 nodecolor
newpath 128 53 moveto
122 53 116 47 116 41 curveto
stroke
0.066667 0.8549 0.82353 nodecolor
newpath 116 13 moveto
116 7 122 1 128 1 curveto
closepath fill
1 setlinewidth
filled
0.066667 0.8549 0.82353 nodecolor
newpath 116 13 moveto
116 7 122 1 128 1 curveto
stroke
1 setlinewidth
filled
0 0 0 nodecolor
newpath 128 1 moveto
158 1 lineto
stroke
1 setlinewidth
filled
0 0 0 nodecolor
newpath 158 1 moveto
164 1 170 7 170 13 curveto
stroke
1 setlinewidth
filled
0 0 0 nodecolor
newpath 170 13 moveto
170 41 lineto
stroke
1 setlinewidth
filled
0 0 0 nodecolor
newpath 170 41 moveto
170 47 164 53 158 53 curveto
stroke
1 setlinewidth
filled
0 0 0 nodecolor
newpath 158 53 moveto
128 53 lineto
stroke
1 setlinewidth
filled
0 0 0 nodecolor
newpath 128 53 moveto
122 53 116 47 116 41 curveto
stroke
1 setlinewidth
filled
0 0 0 nodecolor
newpath 116 41 moveto
116 13 lineto
stroke
1 setlinewidth
filled
0 0 0 nodecolor
newpath 116 13 moveto
116 7 122 1 128 1 curveto
stroke
0 0 0 nodecolor
14 /Times-Roman set_font
137 36.4 moveto 12 (O) alignedtext
1 setlinewidth
filled
0 0 0 nodecolor
newpath 116 27 moveto
170 27 lineto
stroke
0 0 0 nodecolor
14 /Times-Roman set_font
137 10.4 moveto 12 (O) alignedtext
grestore
% C->B
gsave
1 setlinewidth
0 0 0 edgecolor
newpath 136.84 92.88 moveto
136.26 83.66 136.1 73.11 136.39 63.2 curveto
stroke
0 0 0 edgecolor
newpath 139.89 63.33 moveto
136.84 53.18 lineto
132.89 63.01 lineto
closepath fill
1 setlinewidth
solid
0 0 0 edgecolor
newpath 139.89 63.33 moveto
136.84 53.18 lineto
132.89 63.01 lineto
closepath stroke
grestore
% B->C
gsave
1 setlinewidth
dashed
0 0 0 edgecolor
newpath 149.16 53.18 moveto
149.74 62.42 149.9 72.96 149.61 82.87 curveto
stroke
0 0 0 edgecolor
newpath 146.11 82.73 moveto
149.16 92.88 lineto
153.11 83.05 lineto
closepath fill
1 setlinewidth
solid
0 0 0 edgecolor
newpath 146.11 82.73 moveto
149.16 92.88 lineto
153.11 83.05 lineto
closepath stroke
grestore
% B->B
gsave
1 setlinewidth
0 0 0 edgecolor
newpath 170.24 35.62 moveto
180.02 35.8 188 32.93 188 27 curveto
188 23.39 185.04 20.91 180.51 19.57 curveto
stroke
0 0 0 edgecolor
newpath 180.58 16.05 moveto
170.24 18.38 lineto
179.77 23 lineto
closepath fill
1 setlinewidth
solid
0 0 0 edgecolor
newpath 180.58 16.05 moveto
170.24 18.38 lineto
179.77 23 lineto
closepath stroke
grestore
endpage
showpage
grestore
%%PageTrailer
%%EndPage: 1
%%Trailer
%%Pages: 1
%%BoundingBox: 36 36 264 374
end
restore
%%EOF
